*** Darwin 12x12 ***
Turn = 0.
  012345678901
0 ............
1 ..r.........
2 ..hf........
3 ............
4 ............
5 ............
6 ............
7 ............
8 ............
9 ............
0 ............
1 ............

Turn = 5.
  012345678901
0 ............
1 ............
2 ...f........
3 r...........
4 ............
5 ............
6 ............
7 ..h.........
8 ............
9 ............
0 ............
1 ............

Turn = 10.
  012345678901
0 ............
1 ............
2 ...f........
3 ............
4 ............
5 ............
6 ............
7 ............
8 r...........
9 ............
0 ............
1 ..h.........

*** Darwin 6x8 ***
Turn = 0.
  01234567
0 ........
1 ........
2 ........
3 ....h...
4 ...r....
5 ........

Turn = 6.
  01234567
0 ........
1 ........
2 ........
3 .......h
4 ........
5 r.......

Turn = 12.
  01234567
0 r.......
1 ........
2 ........
3 .......h
4 ........
5 ........

*** Darwin 10x10 ***
Turn = 0.
  0123456789
0 ..........
1 ..........
2 ..........
3 .....r....
4 ....ht....
5 ..........
6 ..........
7 ..........
8 ..........
9 ..........

Turn = 5.
  0123456789
0 ....r.....
1 ..........
2 ..........
3 ..........
4 h....t....
5 ..........
6 ..........
7 ..........
8 ..........
9 ..........

Turn = 10.
  0123456789
0 r.........
1 ..........
2 ..........
3 ..........
4 h....t....
5 ..........
6 ..........
7 ..........
8 ..........
9 ..........

*** Darwin 4x4 ***
Turn = 0.
  0123
0 ....
1 ..r.
2 ...f
3 ....

Turn = 5.
  0123
0 ...r
1 ....
2 ...f
3 ....

Turn = 10.
  0123
0 ....
1 ....
2 ..r.
3 ...r

*** Darwin 8x8 ***
Turn = 0.
  01234567
0 ........
1 ........
2 ....h...
3 ..f.....
4 ........
5 ...t....
6 ........
7 ....f...

Turn = 5.
  01234567
0 ........
1 ........
2 ........
3 ..f.....
4 ........
5 ...tt...
6 ........
7 ....f...

Turn = 10.
  01234567
0 ........
1 ........
2 ........
3 ..f.....
4 ........
5 ...tt...
6 ........
7 ....f...

*** Darwin 8x8 ***
Turn = 0.
  01234567
0 ........
1 ........
2 ..t.....
3 ..h.h...
4 ..r.....
5 .....f..
6 .....t..
7 ........

Turn = 1.
  01234567
0 ........
1 ........
2 ..t.....
3 ..h..h..
4 .r......
5 .....f..
6 .....t..
7 ........

Turn = 2.
  01234567
0 ........
1 ........
2 ..t.....
3 ......h.
4 r.h.....
5 .....f..
6 .....t..
7 ........

Turn = 3.
  01234567
0 ........
1 ........
2 ..t.....
3 .......h
4 r.......
5 ..h..t..
6 .....t..
7 ........

Turn = 4.
  01234567
0 ........
1 ........
2 ..t.....
3 .......h
4 ........
5 r....t..
6 ..h..t..
7 ........

Turn = 5.
  01234567
0 ........
1 ........
2 ..t.....
3 .......h
4 ........
5 .....t..
6 r....t..
7 ..h.....

*** Darwin 5x5 ***
Turn = 0.
  01234
0 .....
1 ..ff.
2 .f...
3 .....
4 .....

Turn = 10.
  01234
0 .....
1 ..ff.
2 .f...
3 .....
4 .....

Turn = 20.
  01234
0 .....
1 ..ff.
2 .f...
3 .....
4 .....

*** Darwin 6x6 ***
Turn = 0.
  012345
0 ......
1 ..r...
2 ....rr
3 ......
4 ......
5 ......

Turn = 5.
  012345
0 ...r..
1 ...r..
2 ......
3 ......
4 ......
5 ....r.

Turn = 10.
  012345
0 r.....
1 ......
2 ......
3 ......
4 ......
5 r..r..

*** Darwin 3x4 ***
Turn = 0.
  0123
0 ....
1 .r..
2 hrr.

Turn = 40.
  0123
0 rr..
1 r...
2 r...

Turn = 80.
  0123
0 rr.r
1 ....
2 .r..

*** Darwin 6x7 ***
Turn = 0.
  0123456
0 .......
1 ..h....
2 ......t
3 .......
4 .......
5 .......

Turn = 157.
  0123456
0 ..h....
1 .......
2 ......t
3 .......
4 .......
5 .......

*** Darwin 10x6 ***
Turn = 0.
  012345
0 ......
1 ......
2 ....t.
3 ...h..
4 .....t
5 .....r
6 ......
7 ......
8 ......
9 ......

Turn = 2.
  012345
0 ......
1 ......
2 ....t.
3 .....h
4 ....rr
5 ......
6 ......
7 ......
8 ......
9 ......

Turn = 4.
  012345
0 ......
1 ......
2 ....t.
3 .....r
4 ..r..r
5 ......
6 ......
7 ......
8 ......
9 ......

Turn = 6.
  012345
0 ......
1 .....r
2 ....t.
3 ......
4 r.....
5 .....r
6 ......
7 ......
8 ......
9 ......

Turn = 8.
  012345
0 .....r
1 ......
2 ....t.
3 ......
4 ......
5 r.....
6 ......
7 .....r
8 ......
9 ......

Turn = 10.
  012345
0 ......
1 .....r
2 ....t.
3 ......
4 ......
5 ......
6 ......
7 r.....
8 ......
9 .....r

Turn = 12.
  012345
0 ......
1 ......
2 ....tt
3 ......
4 ......
5 ......
6 ......
7 ......
8 ......
9 r....r

Turn = 14.
  012345
0 ......
1 ......
2 ....tt
3 ......
4 ......
5 ......
6 ......
7 ......
8 ......
9 .r..r.

Turn = 16.
  012345
0 ......
1 ......
2 ....tt
3 ......
4 ......
5 ......
6 ......
7 ......
8 ......
9 ..rr..

Turn = 18.
  012345
0 ......
1 ......
2 ....tt
3 ......
4 ......
5 ......
6 ......
7 ..r...
8 ......
9 ....r.

Turn = 20.
  012345
0 ......
1 ......
2 ....tt
3 ......
4 ......
5 ..r...
6 ......
7 ......
8 ......
9 .....r

Turn = 22.
  012345
0 ......
1 ......
2 ....tt
3 ..r...
4 ......
5 ......
6 ......
7 .....r
8 ......
9 ......

Turn = 24.
  012345
0 ......
1 ..r...
2 ....tt
3 ......
4 ......
5 .....r
6 ......
7 ......
8 ......
9 ......

*** Darwin 6x5 ***
Turn = 0.
  01234
0 .....
1 .....
2 ..tfr
3 .....
4 .....
5 .....

Turn = 15.
  01234
0 .....
1 .....
2 ..ttt
3 .....
4 .....
5 .....

Turn = 30.
  01234
0 .....
1 .....
2 ..ttt
3 .....
4 .....
5 .....

*** Darwin 8x8 ***
Turn = 0.
  01234567
0 ........
1 ........
2 ........
3 h.......
4 t.......
5 ........
6 ........
7 ........

Turn = 5.
  01234567
0 ........
1 ........
2 ........
3 t.......
4 t.......
5 ........
6 ........
7 ........

Turn = 10.
  01234567
0 ........
1 ........
2 ........
3 t.......
4 t.......
5 ........
6 ........
7 ........

*** Darwin 8x8 ***
Turn = 0.
  01234567
0 ........
1 t.......
2 .....r..
3 ...f....
4 ........
5 ........
6 ........
7 ........

Turn = 10.
  01234567
0 ........
1 t.......
2 t.......
3 ...f....
4 ........
5 ........
6 ........
7 ........

Turn = 20.
  01234567
0 ........
1 t.......
2 t.......
3 ...f....
4 ........
5 ........
6 ........
7 ........

*** Darwin 9x10 ***
Turn = 0.
  0123456789
0 ..........
1 ..h.......
2 ..r.......
3 ..........
4 ..........
5 h.........
6 .r........
7 ..........
8 ..........

Turn = 10.
  0123456789
0 ..........
1 .........h
2 ..........
3 ..........
4 ..........
5 ..........
6 ..........
7 r........r
8 r.........

Turn = 20.
  0123456789
0 r.........
1 .........h
2 ..........
3 ..........
4 ..........
5 ..........
6 ..........
7 .........r
8 .r........

*** Darwin 7x8 ***
Turn = 0.
  01234567
0 ........
1 .f......
2 ........
3 ........
4 ..f.....
5 r.......
6 ........

Turn = 5.
  01234567
0 ........
1 .f......
2 ........
3 ........
4 ..f.....
5 ........
6 ...r....

Turn = 10.
  01234567
0 ........
1 .f......
2 ........
3 ........
4 ..f.....
5 ........
6 .......r

Turn = 15.
  01234567
0 ........
1 .f......
2 ........
3 ........
4 ..f.....
5 ........
6 ...r....

Turn = 20.
  01234567
0 ........
1 .f......
2 ........
3 ........
4 ..f.....
5 ........
6 r.......

Turn = 25.
  01234567
0 ........
1 .f......
2 r.......
3 ........
4 ..f.....
5 ........
6 ........

*** Darwin 10x8 ***
Turn = 0.
  01234567
0 ....f...
1 h.......
2 ..r.....
3 ........
4 ...r....
5 ........
6 ........
7 ....h...
8 ........
9 ........

Turn = 20.
  01234567
0 r......r
1 r.......
2 ........
3 ........
4 ........
5 ........
6 ........
7 ........
8 r.......
9 .....r..

Turn = 40.
  01234567
0 .r..r...
1 ........
2 ........
3 .......r
4 .......r
5 ........
6 ........
7 ........
8 ........
9 .......r

*** Darwin 8x8 ***
Turn = 0.
  01234567
0 .h.f....
1 ....r...
2 ........
3 ...r....
4 ........
5 ........
6 ........
7 ........

Turn = 10.
  01234567
0 .h.....r
1 ........
2 .......r
3 ........
4 ........
5 ........
6 ........
7 .......r

Turn = 20.
  01234567
0 r.......
1 ..r.....
2 ........
3 ........
4 ........
5 ........
6 ........
7 r..r....

*** Darwin 6x6 ***
Turn = 0.
  012345
0 ......
1 ..f...
2 ......
3 ...r..
4 ..r...
5 ......

Turn = 10.
  012345
0 r.....
1 ......
2 ....r.
3 ....r.
4 ......
5 ......

Turn = 20.
  012345
0 ......
1 ......
2 .....r
3 ......
4 ......
5 rr....

*** Darwin 7x7 ***
Turn = 0.
  0123456
0 .......
1 .......
2 ..ff...
3 .......
4 ..r....
5 .......
6 .......

Turn = 10.
  0123456
0 .......
1 .......
2 .......
3 ......r
4 .......
5 ..rr...
6 .......

Turn = 20.
  0123456
0 .......
1 rr.....
2 .......
3 ......r
4 .......
5 .......
6 .......

*** Darwin 5x8 ***
Turn = 0.
  01234567
0 .h.f....
1 ....r...
2 ........
3 ...r....
4 ........

Turn = 10.
  01234567
0 .h.....r
1 ........
2 .......r
3 .......r
4 ........

Turn = 20.
  01234567
0 r.r.....
1 ..r.....
2 ........
3 ..r.....
4 ........

*** Darwin 12x6 ***
Turn = 0.
  012345
0 .h.f..
1 ....r.
2 ......
3 ...r..
4 ......
5 ......
6 ......
7 ......
8 ......
9 ......
0 ......
1 ......

Turn = 6.
  012345
0 .rr...
1 .r...r
2 ......
3 ......
4 ......
5 ......
6 ......
7 ......
8 ......
9 ......
0 ......
1 ......

Turn = 12.
  012345
0 ......
1 ......
2 ......
3 ......
4 .r....
5 r.r...
6 ......
7 .....r
8 ......
9 ......
0 ......
1 ......

Turn = 18.
  012345
0 ......
1 ......
2 ......
3 ......
4 ......
5 ......
6 ......
7 ......
8 ......
9 ......
0 .r....
1 r.r.r.

*** Darwin 12x6 ***
Turn = 0.
  012345
0 .h.r..
1 ....r.
2 ......
3 ...f..
4 ......
5 ......
6 ......
7 ......
8 ......
9 ......
0 ......
1 ......

Turn = 6.
  012345
0 ....h.
1 .....r
2 ......
3 ...f..
4 ......
5 ......
6 ......
7 ....r.
8 ......
9 ......
0 ......
1 ......

Turn = 12.
  012345
0 .....h
1 ......
2 ......
3 ...f..
4 ......
5 ......
6 ......
7 .....r
8 ......
9 ......
0 ......
1 .....r

Turn = 18.
  012345
0 .....h
1 ......
2 ......
3 ...f..
4 ......
5 ......
6 ......
7 ......
8 ......
9 ......
0 ......
1 .r...r

*** Darwin 12x8 ***
Turn = 0.
  01234567
0 ........
1 ...rh...
2 .r......
3 ...h....
4 ........
5 ........
6 ........
7 ........
8 ........
9 ........
0 ........
1 ........

Turn = 6.
  01234567
0 .r......
1 .......r
2 ......r.
3 ........
4 ........
5 ........
6 ........
7 ....r...
8 ........
9 ........
0 ........
1 ........

Turn = 12.
  01234567
0 ........
1 ........
2 ........
3 ........
4 r.......
5 ........
6 ........
7 ......rr
8 ........
9 ........
0 ........
1 ...r....

Turn = 18.
  01234567
0 ........
1 ........
2 ........
3 ........
4 ........
5 ........
6 ........
7 ........
8 ........
9 r.......
0 r.......
1 ......rr

*** Darwin 12x10 ***
Turn = 0.
  0123456789
0 ..........
1 ...rf.....
2 .r........
3 ...f......
4 ..........
5 ..........
6 ..........
7 ..........
8 ..........
9 ..........
0 ..........
1 ..........

Turn = 6.
  0123456789
0 ..........
1 ........rr
2 .......r..
3 ...f......
4 ..........
5 ..........
6 ..........
7 ..........
8 ..........
9 ..........
0 ..........
1 ..........

Turn = 12.
  0123456789
0 .........r
1 ..........
2 ..........
3 ...f.....r
4 ..........
5 .........r
6 ..........
7 ..........
8 ..........
9 ..........
0 ..........
1 ..........

Turn = 18.
  0123456789
0 .....r....
1 ..........
2 ..........
3 ...f......
4 ..........
5 ..........
6 ..........
7 ..........
8 ..........
9 .........r
0 ..........
1 .........r



*** Darwin 12x12 ***
Turn = 0.
  012345678901
0 ............
1 ...hh.......
2 .h..........
3 ...h........
4 ............
5 ............
6 ............
7 ............
8 ............
9 ............
0 ............
1 ............

Turn = 10.
  012345678901
0 ...h........
1 ...........h
2 ..........h.
3 ............
4 ............
5 ............
6 ............
7 ............
8 ............
9 ............
0 ............
1 ....h.......

Turn = 20.
  012345678901
0 ...h........
1 ...........h
2 ...........h
3 ............
4 ............
5 ............
6 ............
7 ............
8 ............
9 ............
0 ............
1 ....h.......

*** Darwin 12x14 ***
Turn = 0.
  01234567890123
0 ..............
1 ...rf.........
2 .h............
3 ...f..........
4 ..............
5 ..............
6 ..............
7 ..............
8 ..............
9 ..............
0 ..............
1 ..............

Turn = 10.
  01234567890123
0 r.............
1 ....f.........
2 ..............
3 ..............
4 ..............
5 ..............
6 ..............
7 ..rr..........
8 ..............
9 ..............
0 ..............
1 ..............

Turn = 20.
  01234567890123
0 ..........r...
1 ....f.........
2 ..............
3 ..............
4 ..............
5 ..............
6 ..............
7 ..rr..........
8 ..............
9 ..............
0 ..............
1 ..............
