*** Darwin 3x6 ***
Turn = 0.
  012345
0 ....t.
1 .r..t.
2 ...tf.

Turn = 55.
  012345
0 ....t.
1 ...t..
2 ...ttt

Turn = 110.
  012345
0 ....t.
1 ...t..
2 ...ttt

Turn = 165.
  012345
0 ....t.
1 ...t..
2 ...ttt

Turn = 220.
  012345
0 ....t.
1 ...t..
2 ...ttt

Turn = 275.
  012345
0 ....t.
1 ...t..
2 ...ttt

Turn = 330.
  012345
0 ....t.
1 ...t..
2 ...ttt

Turn = 385.
  012345
0 ....t.
1 ...t..
2 ...ttt

Turn = 440.
  012345
0 ....t.
1 ...t..
2 ...ttt

Turn = 495.
  012345
0 ....t.
1 ...t..
2 ...ttt

Turn = 550.
  012345
0 ....t.
1 ...t..
2 ...ttt

Turn = 605.
  012345
0 ....t.
1 ...t..
2 ...ttt

Turn = 660.
  012345
0 ....t.
1 ...t..
2 ...ttt

Turn = 715.
  012345
0 ....t.
1 ...t..
2 ...ttt

Turn = 770.
  012345
0 ....t.
1 ...t..
2 ...ttt

Turn = 825.
  012345
0 ....t.
1 ...t..
2 ...ttt

Turn = 880.
  012345
0 ....t.
1 ...t..
2 ...ttt

Turn = 935.
  012345
0 ....t.
1 ...t..
2 ...ttt

*** Darwin 1x2 ***
Turn = 0.
  01
0 ht

Turn = 178.
  01
0 tt

Turn = 356.
  01
0 tt

Turn = 534.
  01
0 tt

*** Darwin 7x2 ***
Turn = 0.
  01
0 .f
1 fr
2 ..
3 h.
4 ..
5 th
6 fr

Turn = 125.
  01
0 r.
1 ..
2 r.
3 rr
4 r.
5 rr
6 r.

Turn = 250.
  01
0 rr
1 ..
2 r.
3 .r
4 rr
5 r.
6 r.

Turn = 375.
  01
0 ..
1 r.
2 rr
3 r.
4 r.
5 .r
6 rr

Turn = 500.
  01
0 rr
1 r.
2 rr
3 .r
4 r.
5 ..
6 .r

Turn = 625.
  01
0 r.
1 .r
2 rr
3 ..
4 .r
5 rr
6 r.

Turn = 750.
  01
0 .r
1 .r
2 ..
3 ..
4 rr
5 rr
6 rr

Turn = 875.
  01
0 .r
1 .r
2 r.
3 r.
4 rr
5 .r
6 r.

*** Darwin 1x5 ***
Turn = 0.
  01234
0 rh..t

Turn = 148.
  01234
0 r.rr.

Turn = 296.
  01234
0 rrr..

Turn = 444.
  01234
0 ..rrr

Turn = 592.
  01234
0 r.rr.

Turn = 740.
  01234
0 r.r.r

*** Darwin 1x6 ***
Turn = 0.
  012345
0 t....f

Turn = 76.
  012345
0 t....f

Turn = 152.
  012345
0 t....f

Turn = 228.
  012345
0 t....f

Turn = 304.
  012345
0 t....f

Turn = 380.
  012345
0 t....f

Turn = 456.
  012345
0 t....f

Turn = 532.
  012345
0 t....f

Turn = 608.
  012345
0 t....f

Turn = 684.
  012345
0 t....f

Turn = 760.
  012345
0 t....f

Turn = 836.
  012345
0 t....f

Turn = 912.
  012345
0 t....f

*** Darwin 2x5 ***
Turn = 0.
  01234
0 r....
1 ..hh.

Turn = 130.
  01234
0 r..rr
1 .....

*** Darwin 3x7 ***
Turn = 0.
  0123456
0 h.f..f.
1 .tt....
2 .r.h...

Turn = 61.
  0123456
0 h.t..f.
1 .ttt...
2 .t.....

Turn = 122.
  0123456
0 h.t..f.
1 .ttt...
2 .t.....

Turn = 183.
  0123456
0 h.t..f.
1 .ttt...
2 .t.....

Turn = 244.
  0123456
0 h.t..f.
1 .ttt...
2 .t.....

Turn = 305.
  0123456
0 h.t..f.
1 .ttt...
2 .t.....

Turn = 366.
  0123456
0 h.t..f.
1 .ttt...
2 .t.....

Turn = 427.
  0123456
0 h.t..f.
1 .ttt...
2 .t.....

Turn = 488.
  0123456
0 h.t..f.
1 .ttt...
2 .t.....

Turn = 549.
  0123456
0 h.t..f.
1 .ttt...
2 .t.....

*** Darwin 5x8 ***
Turn = 0.
  01234567
0 ..f.f.r.
1 .......h
2 ....h...
3 f.h....t
4 ........

Turn = 130.
  01234567
0 ..r.....
1 ........
2 ...r..r.
3 .....r.r
4 .r..r..r

Turn = 260.
  01234567
0 rr....r.
1 .....r.r
2 ........
3 ........
4 r....r.r

Turn = 390.
  01234567
0 .....r..
1 ...r..r.
2 ........
3 r...rr..
4 ....rr..

Turn = 520.
  01234567
0 r.....r.
1 ........
2 r.......
3 r.....rr
4 .r...r..

Turn = 650.
  01234567
0 r....r.r
1 ........
2 r......r
3 ......rr
4 r.......

*** Darwin 4x6 ***
Turn = 0.
  012345
0 ...fh.
1 ..t...
2 h.h..h
3 ....h.

Turn = 110.
  012345
0 ...f.h
1 ..t.h.
2 h.t.h.
3 ......

Turn = 220.
  012345
0 ...f.h
1 ..t.h.
2 h.t.h.
3 ......

Turn = 330.
  012345
0 ...f.h
1 ..t.h.
2 h.t.h.
3 ......

Turn = 440.
  012345
0 ...f.h
1 ..t.h.
2 h.t.h.
3 ......

Turn = 550.
  012345
0 ...f.h
1 ..t.h.
2 h.t.h.
3 ......

Turn = 660.
  012345
0 ...f.h
1 ..t.h.
2 h.t.h.
3 ......

*** Darwin 5x1 ***
Turn = 0.
  0
0 h
1 .
2 h
3 r
4 t

Turn = 196.
  0
0 r
1 .
2 r
3 r
4 r

Turn = 392.
  0
0 r
1 r
2 r
3 r
4 .

Turn = 588.
  0
0 r
1 r
2 r
3 .
4 r

Turn = 784.
  0
0 .
1 r
2 r
3 r
4 r

*** Darwin 2x8 ***
Turn = 0.
  01234567
0 h..h...r
1 t.......

Turn = 101.
  01234567
0 tt.....h
1 t.......

Turn = 202.
  01234567
0 tt.....h
1 t.......

Turn = 303.
  01234567
0 tt.....h
1 t.......

Turn = 404.
  01234567
0 tt.....h
1 t.......

Turn = 505.
  01234567
0 tt.....h
1 t.......

Turn = 606.
  01234567
0 tt.....h
1 t.......

Turn = 707.
  01234567
0 tt.....h
1 t.......

*** Darwin 9x7 ***
Turn = 0.
  0123456
0 .......
1 ......t
2 .......
3 .......
4 .......
5 .......
6 .......
7 .......
8 .......

Turn = 58.
  0123456
0 .......
1 ......t
2 .......
3 .......
4 .......
5 .......
6 .......
7 .......
8 .......

Turn = 116.
  0123456
0 .......
1 ......t
2 .......
3 .......
4 .......
5 .......
6 .......
7 .......
8 .......

Turn = 174.
  0123456
0 .......
1 ......t
2 .......
3 .......
4 .......
5 .......
6 .......
7 .......
8 .......

*** Darwin 2x9 ***
Turn = 0.
  012345678
0 ..r..f..h
1 .h.......

Turn = 101.
  012345678
0 ......r..
1 r...rr...

Turn = 202.
  012345678
0 rr....r..
1 ...r.....

Turn = 303.
  012345678
0 .......rr
1 ....rr...

*** Darwin 8x5 ***
Turn = 0.
  01234
0 .....
1 ....r
2 .....
3 f...h
4 .....
5 .....
6 .....
7 .....

Turn = 189.
  01234
0 r....
1 .r...
2 .....
3 .....
4 ....r
5 .....
6 .....
7 .....

Turn = 378.
  01234
0 r....
1 .....
2 .....
3 r....
4 .....
5 .....
6 .....
7 ....r

*** Darwin 10x9 ***
Turn = 0.
  012345678
0 .....r...
1 ..t..h...
2 .........
3 .........
4 .....hrf.
5 .........
6 ....f....
7 .........
8 .......h.
9 .........

Turn = 101.
  012345678
0 ..trr....
1 ..rr.....
2 .........
3 .........
4 .........
5 .........
6 ....f....
7 ........r
8 ........r
9 .........

Turn = 202.
  012345678
0 ......r.r
1 .....r...
2 .........
3 .........
4 .........
5 r........
6 .r.......
7 .........
8 .r.......
9 r.......r

Turn = 303.
  012345678
0 .r..r....
1 r........
2 .....r...
3 .r.......
4 .........
5 .........
6 r........
7 .....r...
8 ........r
9 .........

Turn = 404.
  012345678
0 ...r....r
1 .........
2 ...r.....
3 .........
4 .........
5 ...rr....
6 .........
7 .........
8 .........
9 ......rrr

Turn = 505.
  012345678
0 r........
1 ........r
2 ........r
3 .........
4 .........
5 ...r.....
6 ........r
7 ........r
8 .........
9 r.......r

Turn = 606.
  012345678
0 ...r.....
1 ....r...r
2 .........
3 .........
4 r.......r
5 .........
6 .........
7 .........
8 .......rr
9 ........r

*** Darwin 6x3 ***
Turn = 0.
  012
0 th.
1 ..f
2 r.h
3 ..t
4 ..r
5 ..t

Turn = 61.
  012
0 r..
1 rrr
2 ..r
3 .rr
4 r..
5 ...

Turn = 122.
  012
0 .rr
1 rr.
2 ...
3 ..r
4 .r.
5 rr.

Turn = 183.
  012
0 ...
1 ...
2 rrr
3 rrr
4 ..r
5 r..

Turn = 244.
  012
0 ...
1 r..
2 r..
3 ..r
4 .rr
5 rrr

Turn = 305.
  012
0 rr.
1 .r.
2 ...
3 r..
4 ..r
5 rrr

Turn = 366.
  012
0 r..
1 r..
2 rr.
3 .rr
4 rr.
5 ...

Turn = 427.
  012
0 r..
1 r..
2 rr.
3 r..
4 ..r
5 rr.

Turn = 488.
  012
0 ...
1 r.r
2 rr.
3 ...
4 rr.
5 rr.

Turn = 549.
  012
0 rrr
1 rrr
2 rr.
3 ...
4 ...
5 ...

Turn = 610.
  012
0 rr.
1 ..r
2 ...
3 r..
4 rr.
5 rr.

Turn = 671.
  012
0 .r.
1 r..
2 r.r
3 ...
4 r.r
5 .rr

Turn = 732.
  012
0 ...
1 ..r
2 .rr
3 rr.
4 r..
5 rr.

Turn = 793.
  012
0 .rr
1 r..
2 ...
3 r..
4 rrr
5 r..

*** Darwin 2x6 ***
Turn = 0.
  012345
0 ......
1 f....f

*** Darwin 6x6 ***
Turn = 0.
  012345
0 .h....
1 ...ht.
2 ft....
3 ....h.
4 ..f...
5 ......

Turn = 107.
  012345
0 .h....
1 ...tt.
2 tt....
3 ......
4 ..f...
5 ....h.

Turn = 214.
  012345
0 .h....
1 ...tt.
2 tt....
3 ......
4 ..f...
5 ....h.

Turn = 321.
  012345
0 .h....
1 ...tt.
2 tt....
3 ......
4 ..f...
5 ....h.

Turn = 428.
  012345
0 .h....
1 ...tt.
2 tt....
3 ......
4 ..f...
5 ....h.

*** Darwin 10x9 ***
Turn = 0.
  012345678
0 .........
1 f........
2 .........
3 ........r
4 .........
5 ........t
6 ...t.....
7 .........
8 ....h.f..
9 ........r

Turn = 171.
  012345678
0 .........
1 f........
2 .........
3 .........
4 ........t
5 ........t
6 ...t....t
7 .........
8 ......f..
9 ....h....

Turn = 342.
  012345678
0 .........
1 f........
2 .........
3 .........
4 ........t
5 ........t
6 ...t....t
7 .........
8 ......f..
9 ....h....

Turn = 513.
  012345678
0 .........
1 f........
2 .........
3 .........
4 ........t
5 ........t
6 ...t....t
7 .........
8 ......f..
9 ....h....

Turn = 684.
  012345678
0 .........
1 f........
2 .........
3 .........
4 ........t
5 ........t
6 ...t....t
7 .........
8 ......f..
9 ....h....

Turn = 855.
  012345678
0 .........
1 f........
2 .........
3 .........
4 ........t
5 ........t
6 ...t....t
7 .........
8 ......f..
9 ....h....

*** Darwin 1x4 ***
Turn = 0.
  0123
0 h.hh

Turn = 63.
  0123
0 h.hh

Turn = 126.
  0123
0 h.hh

*** Darwin 1x4 ***
Turn = 0.
  0123
0 hrrt

Turn = 56.
  0123
0 tttt

Turn = 112.
  0123
0 tttt

Turn = 168.
  0123
0 tttt

Turn = 224.
  0123
0 tttt

Turn = 280.
  0123
0 tttt

Turn = 336.
  0123
0 tttt

Turn = 392.
  0123
0 tttt

Turn = 448.
  0123
0 tttt

Turn = 504.
  0123
0 tttt

Turn = 560.
  0123
0 tttt

*** Darwin 8x8 ***
Turn = 0.
  01234567
0 .f......
1 ..r.....
2 ........
3 ........
4 r.......
5 ........
6 .r......
7 ........

Turn = 128.
  01234567
0 ....r...
1 ........
2 .r......
3 ........
4 ........
5 ........
6 ........
7 r...r...

Turn = 256.
  01234567
0 ........
1 ...r....
2 .......r
3 ........
4 ........
5 r.......
6 ........
7 .......r

*** Darwin 9x3 ***
Turn = 0.
  012
0 r..
1 ...
2 ...
3 ..h
4 ...
5 t.f
6 ...
7 ...
8 .t.

*** Darwin 5x10 ***
Turn = 0.
  0123456789
0 .tt.......
1 ..........
2 ..........
3 .........t
4 ..........

Turn = 63.
  0123456789
0 .tt.......
1 ..........
2 ..........
3 .........t
4 ..........

Turn = 126.
  0123456789
0 .tt.......
1 ..........
2 ..........
3 .........t
4 ..........

Turn = 189.
  0123456789
0 .tt.......
1 ..........
2 ..........
3 .........t
4 ..........

Turn = 252.
  0123456789
0 .tt.......
1 ..........
2 ..........
3 .........t
4 ..........

Turn = 315.
  0123456789
0 .tt.......
1 ..........
2 ..........
3 .........t
4 ..........

Turn = 378.
  0123456789
0 .tt.......
1 ..........
2 ..........
3 .........t
4 ..........

Turn = 441.
  0123456789
0 .tt.......
1 ..........
2 ..........
3 .........t
4 ..........

Turn = 504.
  0123456789
0 .tt.......
1 ..........
2 ..........
3 .........t
4 ..........

Turn = 567.
  0123456789
0 .tt.......
1 ..........
2 ..........
3 .........t
4 ..........

Turn = 630.
  0123456789
0 .tt.......
1 ..........
2 ..........
3 .........t
4 ..........

Turn = 693.
  0123456789
0 .tt.......
1 ..........
2 ..........
3 .........t
4 ..........

Turn = 756.
  0123456789
0 .tt.......
1 ..........
2 ..........
3 .........t
4 ..........

Turn = 819.
  0123456789
0 .tt.......
1 ..........
2 ..........
3 .........t
4 ..........

Turn = 882.
  0123456789
0 .tt.......
1 ..........
2 ..........
3 .........t
4 ..........

Turn = 945.
  0123456789
0 .tt.......
1 ..........
2 ..........
3 .........t
4 ..........
