22

7 5
10
r 4 4 s
r 5 1 w
t 1 0 e
r 2 1 e
h 3 3 e
t 4 1 s
f 1 4 s
r 4 0 w
r 6 0 w
r 0 0 e
10 1

7 9
8
h 4 7 e
r 4 8 e
f 3 6 n
r 2 2 e
f 3 4 s
f 2 6 n
t 6 0 w
r 6 7 n
5 1

2 3
1
t 0 2 w
5 1

7 2
2
h 4 0 e
r 0 1 n
5 1

8 7
2
r 4 0 s
t 1 1 w
5 1

4 3
9
r 3 0 n
t 2 2 s
r 0 1 s
r 1 0 n
r 0 2 e
r 1 2 s
h 2 1 s
r 2 2 n
f 1 1 s
5 1

2 1
6
r 1 0 w
t 0 0 n
t 1 0 s
f 1 0 e
f 1 0 n
r 1 0 w
5 1

8 7
3
f 4 4 e
r 4 0 w
t 2 0 n
5 2

1 3
8
r 0 2 e
t 0 1 w
r 0 2 s
r 0 0 e
t 0 0 n
r 0 1 e
t 0 2 w
r 0 1 w
5 1

7 2
10
f 2 0 s
t 6 0 n
h 6 1 w
t 1 0 n
t 2 0 w
t 0 1 e
h 6 0 w
f 6 0 e
h 1 0 n
r 1 0 n
6 2

3 2
3
r 2 1 n
t 0 1 n
f 2 0 w
6 3

2 3
6
t 1 1 w
r 1 1 s
r 1 0 n
h 0 2 e
f 1 2 e
r 1 1 w
6 1

9 7
9
t 8 4 s
t 1 3 s
r 7 6 e
t 2 2 e
f 2 2 n
r 2 0 w
h 4 4 e
r 3 0 s
t 5 0 n
3 1

7 9
6
f 1 5 n
f 0 2 n
t 4 5 n
r 1 2 s
r 4 8 e
t 6 2 e
5 1

4 9
1
t 0 7 s
4 1

9 9
4
r 6 7 e
t 2 1 s
t 7 5 n
h 3 5 w
4 2

7 1
5
h 0 0 s
t 3 0 w
r 4 0 e
f 0 0 n
f 1 0 w
3 1

3 3
8
f 0 1 n
r 0 1 w
f 1 0 w
r 2 1 w
r 1 2 e
t 2 1 w
r 1 1 e
f 0 0 s
10 2

5 2
9
t 2 1 n
r 0 0 e
h 4 0 n
h 1 0 w
f 1 0 e
t 4 0 e
h 2 0 n
f 0 1 n
f 3 1 w
10 2

9 6
8
t 7 4 n
r 1 4 n
f 0 5 s
f 2 2 w
r 6 3 s
f 8 5 w
r 0 0 w
t 1 1 w
20 5

9 9
1
t 2 3 w
3 1

5 5
10
f 1 2 e
t 1 0 w
h 0 1 n
h 2 0 e
h 4 3 w
t 2 4 s
t 2 1 w
h 4 2 e
r 3 0 n
h 4 1 n
14 4
