*** Darwin 4x4 ***
Turn = 0.
  0123
0 ..f.
1 ..r.
2 .f..
3 ....

Turn = 10.
  0123
0 ....
1 ....
2 .f..
3 r..r

*** Darwin 4x4 ***
Turn = 0.
  0123
0 r...
1 ..f.
2 .f..
3 ....

Turn = 10.
  0123
0 ....
1 ..f.
2 .f..
3 ...r

*** Darwin 4x4 ***
Turn = 0.
  0123
0 ....
1 ...r
2 .f..
3 ..f.

Turn = 10.
  0123
0 ....
1 ....
2 .f..
3 ..rr

*** Darwin 9x8 ***
Turn = 0.
  01234567
0 ........
1 .......r
2 ........
3 ........
4 ........
5 ........
6 ........
7 ...h....
8 ........

Turn = 70.
  01234567
0 ........
1 ........
2 ........
3 ........
4 .......r
5 ........
6 ........
7 ........
8 r.......

*** Darwin 13x14 ***
Turn = 0.
  01234567890123
0 ..............
1 ..............
2 .............h
3 ..............
4 ........t.....
5 ..............
6 ..............
7 .............t
8 ..............
9 ...f..........
0 ..............
1 ..............
2 ..............

Turn = 36.
  01234567890123
0 .............h
1 ..............
2 ..............
3 ..............
4 ........t.....
5 ..............
6 ..............
7 .............t
8 ..............
9 ...f..........
0 ..............
1 ..............
2 ..............

Turn = 72.
  01234567890123
0 .............h
1 ..............
2 ..............
3 ..............
4 ........t.....
5 ..............
6 ..............
7 .............t
8 ..............
9 ...f..........
0 ..............
1 ..............
2 ..............

*** Darwin 11x5 ***
Turn = 0.
  01234
0 .....
1 .....
2 .....
3 .....
4 ...f.
5 .....
6 .....
7 ...h.
8 .....
9 .....
0 .....

Turn = 113.
  01234
0 .....
1 .....
2 .....
3 .....
4 ...f.
5 .....
6 .....
7 h....
8 .....
9 .....
0 .....

*** Darwin 15x13 ***
Turn = 0.
  0123456789012
0 .............
1 .............
2 .............
3 .............
4 .............
5 .............
6 .............
7 ..t..........
8 ....r........
9 .............
0 ...r.........
1 .............
2 .............
3 .............
4 .............

Turn = 60.
  0123456789012
0 ...........r.
1 ............r
2 .............
3 .............
4 .............
5 .............
6 .............
7 ..t..........
8 .............
9 .............
0 .............
1 .............
2 .............
3 .............
4 .............

*** Darwin 10x16 ***
Turn = 0.
  0123456789012345
0 ................
1 ...............r
2 ................
3 ................
4 ................
5 .......r........
6 ................
7 .........r......
8 ...rf...........
9 ................

Turn = 115.
  0123456789012345
0 ...........r...r
1 ................
2 ................
3 ................
4 ................
5 r........r......
6 ..........r.....
7 ................
8 ................
9 ................

*** Darwin 5x12 ***
Turn = 0.
  012345678901
0 ............
1 ............
2 ........r...
3 ............
4 ............

Turn = 100.
  012345678901
0 ............
1 ............
2 ............
3 ............
4 ....r.......

*** Darwin 46x36 ***
Turn = 0.
  012345678901234567890123456789012345
0 ....................................
1 ....................................
2 ....................................
3 ....................................
4 ....................................
5 ....................................
6 ....................................
7 ....................................
8 .............r......................
9 ....................................
0 ........f...........................
1 ....................................
2 ....................................
3 ....................................
4 ....................................
5 ....................................
6 ....................................
7 ....................................
8 ....................................
9 ....................................
0 ....................................
1 ....................................
2 ....................................
3 ....................................
4 ....................................
5 ....................................
6 ....................................
7 ....................................
8 ....................................
9 ....................................
0 ....................................
1 ....................................
2 ....................................
3 ....................................
4 ......f.............................
5 ....................................
6 ....................................
7 ....................................
8 ....................................
9 ....................................
0 ....................................
1 ....................................
2 ....................................
3 ....................................
4 ....................................
5 ....................................

Turn = 100.
  012345678901234567890123456789012345
0 r...................................
1 ....................................
2 ....................................
3 ....................................
4 ....................................
5 ....................................
6 ....................................
7 ....................................
8 ....................................
9 ....................................
0 ........f...........................
1 ....................................
2 ....................................
3 ....................................
4 ....................................
5 ....................................
6 ....................................
7 ....................................
8 ....................................
9 ....................................
0 ....................................
1 ....................................
2 ....................................
3 ....................................
4 ....................................
5 ....................................
6 ....................................
7 ....................................
8 ....................................
9 ....................................
0 ....................................
1 ....................................
2 ....................................
3 ....................................
4 ......f.............................
5 ....................................
6 ....................................
7 ....................................
8 ....................................
9 ....................................
0 ....................................
1 ....................................
2 ....................................
3 ....................................
4 ....................................
5 ....................................

*** Darwin 16x8 ***
Turn = 0.
  01234567
0 ........
1 ........
2 ........
3 ........
4 .......r
5 ....f...
6 ........
7 ........
8 ........
9 .......r
0 ....r...
1 ........
2 ........
3 ....r...
4 ........
5 ........

Turn = 50.
  01234567
0 ..r.....
1 r.......
2 ........
3 ........
4 ........
5 ...r....
6 ....r...
7 ........
8 ........
9 ........
0 ........
1 ........
2 ........
3 ........
4 ........
5 ......r.

*** Darwin 7x18 ***
Turn = 0.
  012345678901234567
0 ..................
1 ........f.........
2 .......r......t...
3 ...r..............
4 ..................
5 ........f.........
6 .......t..........

Turn = 120.
  012345678901234567
0 ......r...........
1 ........f.........
2 ..................
3 ..................
4 ..................
5 ........t.........
6 .......ttt........

*** Darwin 12x8 ***
Turn = 0.
  01234567
0 ........
1 ........
2 ........
3 ....f...
4 .......h
5 ........
6 .....h..
7 ........
8 ........
9 ........
0 .....f..
1 ........

Turn = 20.
  01234567
0 ........
1 ........
2 ........
3 ....f...
4 h.......
5 ........
6 ........
7 ........
8 ........
9 .....h..
0 .....f..
1 ........

Turn = 40.
  01234567
0 ........
1 ........
2 ........
3 ....f...
4 h.......
5 ........
6 ........
7 ........
8 ........
9 .....h..
0 .....f..
1 ........

*** Darwin 3x5 ***
Turn = 0.
  01234
0 ..t.r
1 ...h.
2 ...h.

Turn = 50.
  01234
0 .r..r
1 ....r
2 r....

Turn = 100.
  01234
0 ...rr
1 ....r
2 ....r

*** Darwin 2x10 ***
Turn = 0.
  0123456789
0 .......fh.
1 ..hf..t...

Turn = 100.
  0123456789
0 .......fh.
1 ..hf..t...

*** Darwin 7x15 ***
Turn = 0.
  012345678901234
0 ...............
1 .....r.........
2 .r...r.........
3 ...............
4 ........r......
5 ...............
6 .r.............

Turn = 50.
  012345678901234
0 ..........r....
1 .r.............
2 ...............
3 ...............
4 r..............
5 ..r............
6 .............r.

Turn = 100.
  012345678901234
0 ...r...........
1 ...............
2 ............r..
3 ...............
4 ..............r
5 ...............
6 ...r..........r

*** Darwin 7x19 ***
Turn = 0.
  0123456789012345678
0 ...................
1 ...................
2 ..................f
3 ...r........r......
4 ...................
5 ............t....f.
6 ...................

Turn = 40.
  0123456789012345678
0 r..................
1 ...................
2 ............r......
3 ...........r.......
4 ...................
5 ........r........f.
6 ...................

Turn = 80.
  0123456789012345678
0 ...................
1 ...................
2 ...................
3 ...................
4 ..................r
5 rr...............f.
6 r..................

*** Darwin 10x12 ***
Turn = 0.
  012345678901
0 ............
1 ............
2 ............
3 ...r........
4 ........f...
5 ............
6 ............
7 ......f.....
8 ............
9 ............

Turn = 70.
  012345678901
0 ....r.......
1 ............
2 ............
3 ............
4 ........f...
5 ............
6 ............
7 ......f.....
8 ............
9 ............

Turn = 140.
  012345678901
0 ............
1 ............
2 ............
3 ............
4 ........f...
5 ............
6 ............
7 ......f.....
8 ............
9 ...........r

*** Darwin 7x11 ***
Turn = 0.
  01234567890
0 ...........
1 ...........
2 ...........
3 ...........
4 ...........
5 ...........
6 .........r.

Turn = 59.
  01234567890
0 ...........
1 ...........
2 ...........
3 ...........
4 ...........
5 ...........
6 .........r.

*** Darwin 8x14 ***
Turn = 0.
  01234567890123
0 ..............
1 .......r......
2 ...........h..
3 ........t.....
4 ..............
5 ..............
6 ..............
7 ....f.......r.

Turn = 97.
  01234567890123
0 ....r....rr...
1 ..............
2 ..............
3 .............r
4 ..............
5 ..............
6 ..............
7 r.............

*** Darwin 10x7 ***
Turn = 0.
  0123456
0 .......
1 ...t...
2 .......
3 .......
4 .......
5 ..h....
6 ......f
7 ....t.f
8 .......
9 .t.....

Turn = 8.
  0123456
0 ..h....
1 ...t...
2 .......
3 .......
4 .......
5 .......
6 ......f
7 ....t.f
8 .......
9 .t.....

Turn = 16.
  0123456
0 ..h....
1 ...t...
2 .......
3 .......
4 .......
5 .......
6 ......f
7 ....t.f
8 .......
9 .t.....

*** Darwin 13x8 ***
Turn = 0.
  01234567
0 ........
1 t......r
2 ........
3 ........
4 ........
5 ........
6 ........
7 ........
8 .......h
9 ....f...
0 ........
1 ........
2 ........

Turn = 111.
  01234567
0 ........
1 .....r..
2 ....r...
3 ........
4 ........
5 ........
6 ........
7 r.......
8 ........
9 ....f...
0 ........
1 ........
2 ........

*** Darwin 6x10 ***
Turn = 0.
  0123456789
0 ..........
1 ........f.
2 ..........
3 ..........
4 .......t..
5 ....t.h...

*** Darwin 5x12 ***
Turn = 0.
  012345678901
0 ............
1 ..........h.
2 ..........r.
3 ............
4 .......h....

Turn = 100.
  012345678901
0 ....r.......
1 ...r........
2 ............
3 ............
4 ..........r.

*** Darwin 5x10 ***
Turn = 0.
  0123456789
0 ..........
1 ....r.....
2 ........f.
3 ..r....r.r
4 ..........

Turn = 50.
  0123456789
0 .......rrr
1 ........r.
2 ..........
3 ..........
4 .........r

Turn = 100.
  0123456789
0 .......rrr
1 ..........
2 ..........
3 ..........
4 .....r..r.

*** Darwin 8x8 ***
Turn = 0.
  01234567
0 ........
1 ........
2 ..tr....
3 ........
4 ........
5 ........
6 ........
7 r.r....r

Turn = 143.
  01234567
0 ........
1 ........
2 tttt....
3 ..t.....
4 ........
5 ........
6 ........
7 ........

*** Darwin 9x10 ***
Turn = 0.
  0123456789
0 ..........
1 .r........
2 ...f......
3 ..........
4 ..........
5 ..........
6 .......f..
7 .....r....
8 ........r.

Turn = 108.
  0123456789
0 .........r
1 ..........
2 ...f......
3 ..........
4 ..........
5 ........rr
6 .......f..
7 ..........
8 ..........

*** Darwin 8x6 ***
Turn = 0.
  012345
0 ......
1 ......
2 ......
3 ......
4 ......
5 ......
6 ..hh..
7 ......

Turn = 100.
  012345
0 ......
1 ......
2 ......
3 ......
4 ......
5 ......
6 h.....
7 ..h...

*** Darwin 6x12 ***
Turn = 0.
  012345678901
0 ............
1 .......r....
2 .......f....
3 ............
4 .t..........
5 ............

Turn = 69.
  012345678901
0 r...........
1 ............
2 ............
3 ............
4 .t..........
5 ......r.....

*** Darwin 9x3 ***
Turn = 0.
  012
0 ...
1 ...
2 ...
3 ..h
4 h..
5 ...
6 ..h
7 ...
8 ...

Turn = 100.
  012
0 ...
1 ...
2 ...
3 ...
4 h..
5 ...
6 h..
7 ...
8 ..h
