*** Darwin 7x7 ***
Turn = 0.
  0123456
0 .......
1 .......
2 ..t....
3 ..t.hft
4 .r....r
5 .......
6 .......

Turn = 7.
  0123456
0 ....h..
1 .......
2 ..t....
3 ..t..tt
4 .....tt
5 .......
6 .......

Turn = 14.
  0123456
0 ....h..
1 .......
2 ..t....
3 ..t..tt
4 .....tt
5 .......
6 .......

Turn = 21.
  0123456
0 ....h..
1 .......
2 ..t....
3 ..t..tt
4 .....tt
5 .......
6 .......

Turn = 28.
  0123456
0 ....h..
1 .......
2 ..t....
3 ..t..tt
4 .....tt
5 .......
6 .......

Turn = 35.
  0123456
0 ....h..
1 .......
2 ..t....
3 ..t..tt
4 .....tt
5 .......
6 .......

Turn = 42.
  0123456
0 ....h..
1 .......
2 ..t....
3 ..t..tt
4 .....tt
5 .......
6 .......

Turn = 49.
  0123456
0 ....h..
1 .......
2 ..t....
3 ..t..tt
4 .....tt
5 .......
6 .......

*** Darwin 8x1 ***
Turn = 0.
  0
0 t
1 .
2 .
3 h
4 h
5 .
6 .
7 f

Turn = 1.
  0
0 t
1 .
2 .
3 h
4 h
5 .
6 .
7 f

Turn = 2.
  0
0 t
1 .
2 .
3 h
4 h
5 .
6 .
7 f

Turn = 3.
  0
0 t
1 .
2 .
3 h
4 h
5 .
6 .
7 f

Turn = 4.
  0
0 t
1 .
2 .
3 h
4 h
5 .
6 .
7 f

Turn = 5.
  0
0 t
1 .
2 .
3 h
4 h
5 .
6 .
7 f

*** Darwin 7x2 ***
Turn = 0.
  01
0 hr
1 rf
2 f.
3 fr
4 h.
5 ..
6 ..

Turn = 9.
  01
0 .r
1 .r
2 .r
3 .r
4 rr
5 rr
6 ..

Turn = 18.
  01
0 .r
1 r.
2 r.
3 r.
4 ..
5 rr
6 rr

Turn = 27.
  01
0 rr
1 r.
2 rr
3 ..
4 .r
5 .r
6 .r

Turn = 36.
  01
0 rr
1 r.
2 r.
3 ..
4 .r
5 r.
6 rr

Turn = 45.
  01
0 r.
1 r.
2 ..
3 .r
4 rr
5 rr
6 .r

Turn = 54.
  01
0 r.
1 rr
2 rr
3 rr
4 .r
5 ..
6 ..

Turn = 63.
  01
0 rr
1 rr
2 r.
3 .r
4 ..
5 .r
6 .r

Turn = 72.
  01
0 rr
1 r.
2 r.
3 .r
4 rr
5 ..
6 r.

Turn = 81.
  01
0 .r
1 r.
2 ..
3 rr
4 .r
5 r.
6 rr

Turn = 90.
  01
0 r.
1 .r
2 .r
3 r.
4 ..
5 rr
6 rr

Turn = 99.
  01
0 rr
1 r.
2 rr
3 rr
4 ..
5 ..
6 r.

*** Darwin 3x10 ***
Turn = 0.
  0123456789
0 ..........
1 ..........
2 .h.r......

Turn = 10.
  0123456789
0 ..........
1 ..........
2 .h.......r

Turn = 20.
  0123456789
0 ..........
1 ..r.......
2 r.........

Turn = 30.
  0123456789
0 ....r.....
1 .....r....
2 ..........

Turn = 40.
  0123456789
0 .........r
1 ..........
2 ........r.

*** Darwin 2x8 ***
Turn = 0.
  01234567
0 ....f.f.
1 f.ff...h

Turn = 9.
  01234567
0 ....f.fh
1 f.ff....

Turn = 18.
  01234567
0 ....f.fh
1 f.ff....

Turn = 27.
  01234567
0 ....f.fh
1 f.ff....

Turn = 36.
  01234567
0 ....f.fh
1 f.ff....

Turn = 45.
  01234567
0 ....f.fh
1 f.ff....

Turn = 54.
  01234567
0 ....f.fh
1 f.ff....

Turn = 63.
  01234567
0 ....f.fh
1 f.ff....

Turn = 72.
  01234567
0 ....f.fh
1 f.ff....

Turn = 81.
  01234567
0 ....f.fh
1 f.ff....

*** Darwin 10x5 ***
Turn = 0.
  01234
0 r.r..
1 ...f.
2 ...r.
3 .....
4 .....
5 .....
6 .....
7 .....
8 hr..r
9 ....f

Turn = 10.
  01234
0 r...r
1 ...f.
2 ....r
3 .....
4 .....
5 .....
6 .....
7 .....
8 h..r.
9 ..r.f

Turn = 20.
  01234
0 ..rr.
1 r....
2 .....
3 .....
4 .....
5 .....
6 .....
7 .....
8 ....r
9 rrr.r

Turn = 30.
  01234
0 .r..r
1 ....r
2 .....
3 .....
4 .r...
5 r....
6 .....
7 .....
8 r.r..
9 ...r.

Turn = 40.
  01234
0 ..r.r
1 .....
2 ..r..
3 .r..r
4 .....
5 .r...
6 r....
7 r....
8 .....
9 .....

Turn = 50.
  01234
0 .r...
1 .....
2 .....
3 rr...
4 ..rr.
5 ....r
6 .....
7 ....r
8 .....
9 ...r.

Turn = 60.
  01234
0 .....
1 .....
2 ...r.
3 ....r
4 .....
5 r....
6 ...r.
7 rr...
8 .....
9 rr...

*** Darwin 2x2 ***
Turn = 0.
  01
0 tf
1 .h

Turn = 1.
  01
0 tf
1 .h

Turn = 2.
  01
0 tf
1 .h

Turn = 3.
  01
0 tt
1 .h

Turn = 4.
  01
0 tt
1 .h

Turn = 5.
  01
0 tt
1 .h

Turn = 6.
  01
0 tt
1 .t

Turn = 7.
  01
0 tt
1 .t

Turn = 8.
  01
0 tt
1 .t

Turn = 9.
  01
0 tt
1 .t

Turn = 10.
  01
0 tt
1 .t

Turn = 11.
  01
0 tt
1 .t

Turn = 12.
  01
0 tt
1 .t

Turn = 13.
  01
0 tt
1 .t

Turn = 14.
  01
0 tt
1 .t

Turn = 15.
  01
0 tt
1 .t

Turn = 16.
  01
0 tt
1 .t

Turn = 17.
  01
0 tt
1 .t

Turn = 18.
  01
0 tt
1 .t

Turn = 19.
  01
0 tt
1 .t

Turn = 20.
  01
0 tt
1 .t

Turn = 21.
  01
0 tt
1 .t

Turn = 22.
  01
0 tt
1 .t

Turn = 23.
  01
0 tt
1 .t

Turn = 24.
  01
0 tt
1 .t

Turn = 25.
  01
0 tt
1 .t

Turn = 26.
  01
0 tt
1 .t

Turn = 27.
  01
0 tt
1 .t

Turn = 28.
  01
0 tt
1 .t

Turn = 29.
  01
0 tt
1 .t

Turn = 30.
  01
0 tt
1 .t

Turn = 31.
  01
0 tt
1 .t

Turn = 32.
  01
0 tt
1 .t

Turn = 33.
  01
0 tt
1 .t

Turn = 34.
  01
0 tt
1 .t

Turn = 35.
  01
0 tt
1 .t

Turn = 36.
  01
0 tt
1 .t

Turn = 37.
  01
0 tt
1 .t

Turn = 38.
  01
0 tt
1 .t

Turn = 39.
  01
0 tt
1 .t

Turn = 40.
  01
0 tt
1 .t

Turn = 41.
  01
0 tt
1 .t

Turn = 42.
  01
0 tt
1 .t

Turn = 43.
  01
0 tt
1 .t

Turn = 44.
  01
0 tt
1 .t

Turn = 45.
  01
0 tt
1 .t

Turn = 46.
  01
0 tt
1 .t

Turn = 47.
  01
0 tt
1 .t

Turn = 48.
  01
0 tt
1 .t

Turn = 49.
  01
0 tt
1 .t

Turn = 50.
  01
0 tt
1 .t

Turn = 51.
  01
0 tt
1 .t

Turn = 52.
  01
0 tt
1 .t

Turn = 53.
  01
0 tt
1 .t

Turn = 54.
  01
0 tt
1 .t

Turn = 55.
  01
0 tt
1 .t

Turn = 56.
  01
0 tt
1 .t

Turn = 57.
  01
0 tt
1 .t

Turn = 58.
  01
0 tt
1 .t

Turn = 59.
  01
0 tt
1 .t

Turn = 60.
  01
0 tt
1 .t

Turn = 61.
  01
0 tt
1 .t

Turn = 62.
  01
0 tt
1 .t

Turn = 63.
  01
0 tt
1 .t

Turn = 64.
  01
0 tt
1 .t

Turn = 65.
  01
0 tt
1 .t

Turn = 66.
  01
0 tt
1 .t

Turn = 67.
  01
0 tt
1 .t

Turn = 68.
  01
0 tt
1 .t

Turn = 69.
  01
0 tt
1 .t

Turn = 70.
  01
0 tt
1 .t

Turn = 71.
  01
0 tt
1 .t

Turn = 72.
  01
0 tt
1 .t

Turn = 73.
  01
0 tt
1 .t

Turn = 74.
  01
0 tt
1 .t

Turn = 75.
  01
0 tt
1 .t

Turn = 76.
  01
0 tt
1 .t

Turn = 77.
  01
0 tt
1 .t

Turn = 78.
  01
0 tt
1 .t

Turn = 79.
  01
0 tt
1 .t

Turn = 80.
  01
0 tt
1 .t

Turn = 81.
  01
0 tt
1 .t

Turn = 82.
  01
0 tt
1 .t

Turn = 83.
  01
0 tt
1 .t

Turn = 84.
  01
0 tt
1 .t

Turn = 85.
  01
0 tt
1 .t

Turn = 86.
  01
0 tt
1 .t

Turn = 87.
  01
0 tt
1 .t

Turn = 88.
  01
0 tt
1 .t

Turn = 89.
  01
0 tt
1 .t

Turn = 90.
  01
0 tt
1 .t

Turn = 91.
  01
0 tt
1 .t

Turn = 92.
  01
0 tt
1 .t

Turn = 93.
  01
0 tt
1 .t

Turn = 94.
  01
0 tt
1 .t

Turn = 95.
  01
0 tt
1 .t

Turn = 96.
  01
0 tt
1 .t

*** Darwin 2x5 ***
Turn = 0.
  01234
0 .t.fr
1 .....

Turn = 1.
  01234
0 .t.f.
1 ....r

Turn = 2.
  01234
0 .t.f.
1 ....r

Turn = 3.
  01234
0 .t.f.
1 ...r.

Turn = 4.
  01234
0 .t.f.
1 ..r..

Turn = 5.
  01234
0 .t.f.
1 .r...

Turn = 6.
  01234
0 .t.f.
1 r....

Turn = 7.
  01234
0 .t.f.
1 r....

Turn = 8.
  01234
0 .t.f.
1 r....

Turn = 9.
  01234
0 .t.f.
1 r....

*** Darwin 8x4 ***
Turn = 0.
  0123
0 ....
1 ...f
2 ....
3 ....
4 ....
5 f.f.
6 ..t.
7 ....

Turn = 5.
  0123
0 ....
1 ...f
2 ....
3 ....
4 ....
5 f.t.
6 ..t.
7 ....

Turn = 10.
  0123
0 ....
1 ...f
2 ....
3 ....
4 ....
5 f.t.
6 ..t.
7 ....

Turn = 15.
  0123
0 ....
1 ...f
2 ....
3 ....
4 ....
5 f.t.
6 ..t.
7 ....

Turn = 20.
  0123
0 ....
1 ...f
2 ....
3 ....
4 ....
5 f.t.
6 ..t.
7 ....

Turn = 25.
  0123
0 ....
1 ...f
2 ....
3 ....
4 ....
5 f.t.
6 ..t.
7 ....

Turn = 30.
  0123
0 ....
1 ...f
2 ....
3 ....
4 ....
5 f.t.
6 ..t.
7 ....

Turn = 35.
  0123
0 ....
1 ...f
2 ....
3 ....
4 ....
5 f.t.
6 ..t.
7 ....

Turn = 40.
  0123
0 ....
1 ...f
2 ....
3 ....
4 ....
5 f.t.
6 ..t.
7 ....

Turn = 45.
  0123
0 ....
1 ...f
2 ....
3 ....
4 ....
5 f.t.
6 ..t.
7 ....

Turn = 50.
  0123
0 ....
1 ...f
2 ....
3 ....
4 ....
5 f.t.
6 ..t.
7 ....

Turn = 55.
  0123
0 ....
1 ...f
2 ....
3 ....
4 ....
5 f.t.
6 ..t.
7 ....

Turn = 60.
  0123
0 ....
1 ...f
2 ....
3 ....
4 ....
5 f.t.
6 ..t.
7 ....

Turn = 65.
  0123
0 ....
1 ...f
2 ....
3 ....
4 ....
5 f.t.
6 ..t.
7 ....

Turn = 70.
  0123
0 ....
1 ...f
2 ....
3 ....
4 ....
5 f.t.
6 ..t.
7 ....

Turn = 75.
  0123
0 ....
1 ...f
2 ....
3 ....
4 ....
5 f.t.
6 ..t.
7 ....

Turn = 80.
  0123
0 ....
1 ...f
2 ....
3 ....
4 ....
5 f.t.
6 ..t.
7 ....

*** Darwin 2x5 ***
Turn = 0.
  01234
0 .....
1 ...ft

Turn = 10.
  01234
0 .....
1 ...tt

Turn = 20.
  01234
0 .....
1 ...tt

Turn = 30.
  01234
0 .....
1 ...tt

*** Darwin 5x5 ***
Turn = 0.
  01234
0 t...h
1 ...tf
2 .hthf
3 ...t.
4 ..f..

Turn = 5.
  01234
0 tt...
1 ...tt
2 h.ttt
3 ...t.
4 ..f..

Turn = 10.
  01234
0 tt...
1 ...tt
2 h.ttt
3 ...t.
4 ..f..

Turn = 15.
  01234
0 tt...
1 ...tt
2 h.ttt
3 ...t.
4 ..f..

Turn = 20.
  01234
0 tt...
1 ...tt
2 h.ttt
3 ...t.
4 ..f..

Turn = 25.
  01234
0 tt...
1 ...tt
2 h.ttt
3 ...t.
4 ..f..

Turn = 30.
  01234
0 tt...
1 ...tt
2 h.ttt
3 ...t.
4 ..f..

Turn = 35.
  01234
0 tt...
1 ...tt
2 h.ttt
3 ...t.
4 ..f..

Turn = 40.
  01234
0 tt...
1 ...tt
2 h.ttt
3 ...t.
4 ..f..

Turn = 45.
  01234
0 tt...
1 ...tt
2 h.ttt
3 ...t.
4 ..f..

*** Darwin 6x1 ***
Turn = 0.
  0
0 .
1 .
2 f
3 .
4 r
5 t

Turn = 10.
  0
0 .
1 .
2 r
3 r
4 r
5 .

Turn = 20.
  0
0 r
1 .
2 .
3 .
4 r
5 r

Turn = 30.
  0
0 r
1 .
2 r
3 .
4 r
5 .

Turn = 40.
  0
0 .
1 .
2 r
3 .
4 r
5 r

Turn = 50.
  0
0 .
1 .
2 .
3 r
4 r
5 r

Turn = 60.
  0
0 r
1 r
2 .
3 .
4 r
5 .

Turn = 70.
  0
0 .
1 .
2 .
3 r
4 r
5 r

Turn = 80.
  0
0 r
1 .
2 r
3 .
4 .
5 r

Turn = 90.
  0
0 r
1 r
2 .
3 .
4 r
5 .

*** Darwin 3x3 ***
Turn = 0.
  012
0 ..f
1 hf.
2 .h.

Turn = 1.
  012
0 ..f
1 hf.
2 .h.

Turn = 2.
  012
0 ..f
1 hf.
2 .h.

Turn = 3.
  012
0 ..f
1 hf.
2 .h.

Turn = 4.
  012
0 ..f
1 hf.
2 .h.

Turn = 5.
  012
0 ..f
1 hf.
2 .h.

Turn = 6.
  012
0 ..f
1 hf.
2 .h.

Turn = 7.
  012
0 ..f
1 hf.
2 .h.

Turn = 8.
  012
0 ..f
1 hf.
2 .h.

Turn = 9.
  012
0 ..f
1 hf.
2 .h.

Turn = 10.
  012
0 ..f
1 hf.
2 .h.

Turn = 11.
  012
0 ..f
1 hf.
2 .h.

Turn = 12.
  012
0 ..f
1 hf.
2 .h.

Turn = 13.
  012
0 ..f
1 hf.
2 .h.

Turn = 14.
  012
0 ..f
1 hf.
2 .h.

Turn = 15.
  012
0 ..f
1 hf.
2 .h.

Turn = 16.
  012
0 ..f
1 hf.
2 .h.

Turn = 17.
  012
0 ..f
1 hf.
2 .h.

Turn = 18.
  012
0 ..f
1 hf.
2 .h.

Turn = 19.
  012
0 ..f
1 hf.
2 .h.

Turn = 20.
  012
0 ..f
1 hf.
2 .h.

Turn = 21.
  012
0 ..f
1 hf.
2 .h.

Turn = 22.
  012
0 ..f
1 hf.
2 .h.

Turn = 23.
  012
0 ..f
1 hf.
2 .h.

Turn = 24.
  012
0 ..f
1 hf.
2 .h.

Turn = 25.
  012
0 ..f
1 hf.
2 .h.

Turn = 26.
  012
0 ..f
1 hf.
2 .h.

Turn = 27.
  012
0 ..f
1 hf.
2 .h.

Turn = 28.
  012
0 ..f
1 hf.
2 .h.

Turn = 29.
  012
0 ..f
1 hf.
2 .h.

Turn = 30.
  012
0 ..f
1 hf.
2 .h.

Turn = 31.
  012
0 ..f
1 hf.
2 .h.

Turn = 32.
  012
0 ..f
1 hf.
2 .h.

Turn = 33.
  012
0 ..f
1 hf.
2 .h.

Turn = 34.
  012
0 ..f
1 hf.
2 .h.

Turn = 35.
  012
0 ..f
1 hf.
2 .h.

Turn = 36.
  012
0 ..f
1 hf.
2 .h.

Turn = 37.
  012
0 ..f
1 hf.
2 .h.

Turn = 38.
  012
0 ..f
1 hf.
2 .h.

Turn = 39.
  012
0 ..f
1 hf.
2 .h.

Turn = 40.
  012
0 ..f
1 hf.
2 .h.

Turn = 41.
  012
0 ..f
1 hf.
2 .h.

Turn = 42.
  012
0 ..f
1 hf.
2 .h.

Turn = 43.
  012
0 ..f
1 hf.
2 .h.

Turn = 44.
  012
0 ..f
1 hf.
2 .h.

Turn = 45.
  012
0 ..f
1 hf.
2 .h.

Turn = 46.
  012
0 ..f
1 hf.
2 .h.

Turn = 47.
  012
0 ..f
1 hf.
2 .h.

Turn = 48.
  012
0 ..f
1 hf.
2 .h.

Turn = 49.
  012
0 ..f
1 hf.
2 .h.

Turn = 50.
  012
0 ..f
1 hf.
2 .h.

Turn = 51.
  012
0 ..f
1 hf.
2 .h.

Turn = 52.
  012
0 ..f
1 hf.
2 .h.

Turn = 53.
  012
0 ..f
1 hf.
2 .h.

Turn = 54.
  012
0 ..f
1 hf.
2 .h.

Turn = 55.
  012
0 ..f
1 hf.
2 .h.

Turn = 56.
  012
0 ..f
1 hf.
2 .h.

Turn = 57.
  012
0 ..f
1 hf.
2 .h.

Turn = 58.
  012
0 ..f
1 hf.
2 .h.

Turn = 59.
  012
0 ..f
1 hf.
2 .h.

Turn = 60.
  012
0 ..f
1 hf.
2 .h.

Turn = 61.
  012
0 ..f
1 hf.
2 .h.

Turn = 62.
  012
0 ..f
1 hf.
2 .h.

Turn = 63.
  012
0 ..f
1 hf.
2 .h.

Turn = 64.
  012
0 ..f
1 hf.
2 .h.

Turn = 65.
  012
0 ..f
1 hf.
2 .h.

Turn = 66.
  012
0 ..f
1 hf.
2 .h.

Turn = 67.
  012
0 ..f
1 hf.
2 .h.

Turn = 68.
  012
0 ..f
1 hf.
2 .h.

Turn = 69.
  012
0 ..f
1 hf.
2 .h.

Turn = 70.
  012
0 ..f
1 hf.
2 .h.

Turn = 71.
  012
0 ..f
1 hf.
2 .h.

*** Darwin 3x8 ***
Turn = 0.
  01234567
0 rf......
1 ..t.h..r
2 r..h.hf.

Turn = 8.
  01234567
0 rf......
1 ..rt....
2 ..tth.fr

*** Darwin 6x1 ***
Turn = 0.
  0
0 r
1 h
2 .
3 f
4 .
5 .

Turn = 6.
  0
0 r
1 .
2 r
3 f
4 .
5 .

Turn = 12.
  0
0 .
1 r
2 r
3 .
4 .
5 r

Turn = 18.
  0
0 r
1 r
2 .
3 .
4 .
5 r

Turn = 24.
  0
0 r
1 .
2 r
3 r
4 .
5 .

Turn = 30.
  0
0 .
1 .
2 .
3 r
4 r
5 r

Turn = 36.
  0
0 .
1 r
2 .
3 .
4 r
5 r

Turn = 42.
  0
0 r
1 r
2 .
3 .
4 .
5 r

Turn = 48.
  0
0 r
1 .
2 .
3 .
4 r
5 r

Turn = 54.
  0
0 r
1 r
2 r
3 .
4 .
5 .

Turn = 60.
  0
0 r
1 r
2 .
3 .
4 .
5 r

*** Darwin 9x3 ***
Turn = 0.
  012
0 h.t
1 ..r
2 ..h
3 hh.
4 h..
5 t.f
6 ...
7 ...
8 f..

Turn = 9.
  012
0 rtt
1 ...
2 ..r
3 .hh
4 t..
5 t.f
6 ...
7 ...
8 f..

*** Darwin 8x7 ***
Turn = 0.
  0123456
0 ......t
1 .......
2 ..f..f.
3 .....h.
4 .......
5 ....f..
6 ...f...
7 .......

Turn = 3.
  0123456
0 ......t
1 .......
2 ..f..f.
3 .......
4 .......
5 ....f..
6 ...f.h.
7 .......

Turn = 6.
  0123456
0 ......t
1 .......
2 ..f..f.
3 .......
4 .......
5 ....f..
6 ...f...
7 .....h.

Turn = 9.
  0123456
0 ......t
1 .......
2 ..f..f.
3 .......
4 .......
5 ....f..
6 ...f...
7 .....h.

Turn = 12.
  0123456
0 ......t
1 .......
2 ..f..f.
3 .......
4 .......
5 ....f..
6 ...f...
7 .....h.

Turn = 15.
  0123456
0 ......t
1 .......
2 ..f..f.
3 .......
4 .......
5 ....f..
6 ...f...
7 .....h.

Turn = 18.
  0123456
0 ......t
1 .......
2 ..f..f.
3 .......
4 .......
5 ....f..
6 ...f...
7 .....h.

Turn = 21.
  0123456
0 ......t
1 .......
2 ..f..f.
3 .......
4 .......
5 ....f..
6 ...f...
7 .....h.

Turn = 24.
  0123456
0 ......t
1 .......
2 ..f..f.
3 .......
4 .......
5 ....f..
6 ...f...
7 .....h.

*** Darwin 3x5 ***
Turn = 0.
  01234
0 .h.t.
1 t.r.f
2 frtt.

Turn = 4.
  01234
0 ...t.
1 tr.tt
2 tttt.

Turn = 8.
  01234
0 ...t.
1 tt.tt
2 tttt.

Turn = 12.
  01234
0 ...t.
1 tt.tt
2 tttt.

Turn = 16.
  01234
0 ...t.
1 tt.tt
2 tttt.

Turn = 20.
  01234
0 ...t.
1 tt.tt
2 tttt.

Turn = 24.
  01234
0 ...t.
1 tt.tt
2 tttt.

Turn = 28.
  01234
0 ...t.
1 tt.tt
2 tttt.

Turn = 32.
  01234
0 ...t.
1 tt.tt
2 tttt.

Turn = 36.
  01234
0 ...t.
1 tt.tt
2 tttt.

Turn = 40.
  01234
0 ...t.
1 tt.tt
2 tttt.

Turn = 44.
  01234
0 ...t.
1 tt.tt
2 tttt.

Turn = 48.
  01234
0 ...t.
1 tt.tt
2 tttt.

Turn = 52.
  01234
0 ...t.
1 tt.tt
2 tttt.

Turn = 56.
  01234
0 ...t.
1 tt.tt
2 tttt.

Turn = 60.
  01234
0 ...t.
1 tt.tt
2 tttt.

Turn = 64.
  01234
0 ...t.
1 tt.tt
2 tttt.

Turn = 68.
  01234
0 ...t.
1 tt.tt
2 tttt.

Turn = 72.
  01234
0 ...t.
1 tt.tt
2 tttt.

Turn = 76.
  01234
0 ...t.
1 tt.tt
2 tttt.

Turn = 80.
  01234
0 ...t.
1 tt.tt
2 tttt.

Turn = 84.
  01234
0 ...t.
1 tt.tt
2 tttt.

Turn = 88.
  01234
0 ...t.
1 tt.tt
2 tttt.

*** Darwin 6x6 ***
Turn = 0.
  012345
0 r.f..h
1 .f....
2 ...r..
3 .h....
4 .....r
5 ....h.

Turn = 1.
  012345
0 ..f...
1 rf...h
2 .h..r.
3 ......
4 ......
5 ....hr

Turn = 2.
  012345
0 ..f...
1 .f....
2 rh..rr
3 ......
4 ......
5 ....hr

Turn = 3.
  012345
0 ..f...
1 .f....
2 .h..r.
3 r....r
4 ......
5 ....rr

Turn = 4.
  012345
0 ..f...
1 .f..r.
2 .h....
3 ......
4 r....r
5 ....rr

Turn = 5.
  012345
0 ..f.r.
1 .f....
2 .h....
3 ......
4 .....r
5 r...rr

Turn = 6.
  012345
0 ..f.r.
1 .f....
2 .h....
3 ......
4 ....r.
5 r..rr.

Turn = 7.
  012345
0 ..fr..
1 .f....
2 .h....
3 ......
4 ...r..
5 r.rr..

Turn = 8.
  012345
0 ..rr..
1 .f....
2 .h....
3 ......
4 r.r...
5 .rr...

Turn = 9.
  012345
0 ..rr..
1 .f....
2 .h....
3 r.....
4 .r....
5 rr....

Turn = 10.
  012345
0 ..rr..
1 .f....
2 rh....
3 ......
4 r.....
5 rr....

Turn = 11.
  012345
0 .r..r.
1 rf....
2 .h....
3 ......
4 r.....
5 rr....

Turn = 12.
  012345
0 r....r
1 rf....
2 .h....
3 ......
4 r.....
5 r.r...

Turn = 13.
  012345
0 r....r
1 rf....
2 .h....
3 ......
4 r.....
5 r..r..

*** Darwin 5x3 ***
Turn = 0.
  012
0 ff.
1 ...
2 t.r
3 .h.
4 h..

Turn = 10.
  012
0 frr
1 .r.
2 t..
3 t..
4 ...

Turn = 20.
  012
0 r..
1 tt.
2 t..
3 tt.
4 ...

Turn = 30.
  012
0 ...
1 tt.
2 t..
3 ttt
4 ...

Turn = 40.
  012
0 ...
1 tt.
2 t..
3 ttt
4 ...

Turn = 50.
  012
0 ...
1 tt.
2 t..
3 ttt
4 ...

Turn = 60.
  012
0 ...
1 tt.
2 t..
3 ttt
4 ...

Turn = 70.
  012
0 ...
1 tt.
2 t..
3 ttt
4 ...

Turn = 80.
  012
0 ...
1 tt.
2 t..
3 ttt
4 ...

Turn = 90.
  012
0 ...
1 tt.
2 t..
3 ttt
4 ...

*** Darwin 6x10 ***
Turn = 0.
  0123456789
0 .......rr.
1 r.........
2 ..h..ffrf.
3 ...t..t...
4 t....h....
5 ..........

Turn = 9.
  0123456789
0 ........r.
1 .......t..
2 .....tttt.
3 ...t..tt..
4 t.........
5 .....h...r

Turn = 18.
  0123456789
0 .......t..
1 .......t..
2 .....tttt.
3 ...t..tt..
4 t.....t...
5 .r........

*** Darwin 3x7 ***
Turn = 0.
  0123456
0 ..h....
1 .......
2 .......

Turn = 6.
  0123456
0 ......h
1 .......
2 .......

Turn = 12.
  0123456
0 ......h
1 .......
2 .......

Turn = 18.
  0123456
0 ......h
1 .......
2 .......

Turn = 24.
  0123456
0 ......h
1 .......
2 .......

Turn = 30.
  0123456
0 ......h
1 .......
2 .......

Turn = 36.
  0123456
0 ......h
1 .......
2 .......

Turn = 42.
  0123456
0 ......h
1 .......
2 .......

Turn = 48.
  0123456
0 ......h
1 .......
2 .......

Turn = 54.
  0123456
0 ......h
1 .......
2 .......

Turn = 60.
  0123456
0 ......h
1 .......
2 .......
