*** Darwin 6x4 ***
Turn = 0.
  0123
0 ....
1 hr.t
2 ....
3 ....
4 ff.t
5 ....

Turn = 1.
  0123
0 .r..
1 h..t
2 ....
3 ....
4 ff.t
5 ....

Turn = 2.
  0123
0 .r..
1 h..t
2 ....
3 ....
4 ff.t
5 ....

Turn = 3.
  0123
0 ..r.
1 h..t
2 ....
3 ....
4 ff.t
5 ....

Turn = 4.
  0123
0 ...r
1 h..t
2 ....
3 ....
4 ff.t
5 ....

Turn = 5.
  0123
0 ...t
1 h..t
2 ....
3 ....
4 ff.t
5 ....

Turn = 6.
  0123
0 ...t
1 h..t
2 ....
3 ....
4 ff.t
5 ....

Turn = 7.
  0123
0 ...t
1 h..t
2 ....
3 ....
4 ff.t
5 ....

Turn = 8.
  0123
0 ...t
1 h..t
2 ....
3 ....
4 ff.t
5 ....

Turn = 9.
  0123
0 ...t
1 h..t
2 ....
3 ....
4 ff.t
5 ....

Turn = 10.
  0123
0 ...t
1 h..t
2 ....
3 ....
4 ff.t
5 ....

*** Darwin 3x4 ***
Turn = 0.
  0123
0 h...
1 ....
2 ...h

Turn = 1.
  0123
0 .h..
1 ...h
2 ....

Turn = 2.
  0123
0 ..hh
1 ....
2 ....

Turn = 3.
  0123
0 ..hh
1 ....
2 ....

*** Darwin 3x4 ***
Turn = 0.
  0123
0 h...
1 ....
2 ..hh

Turn = 1.
  0123
0 .h..
1 ..hh
2 ....

Turn = 2.
  0123
0 ..hh
1 ..h.
2 ....

Turn = 3.
  0123
0 ..hh
1 ..h.
2 ....

*** Darwin 3x4 ***
Turn = 0.
  0123
0 h...
1 .h..
2 ..th

Turn = 1.
  0123
0 .h..
1 ..th
2 ..t.

Turn = 2.
  0123
0 ..h.
1 ..tt
2 ..t.

*** Darwin 3x4 ***
Turn = 0.
  0123
0 h...
1 ....
2 ..tr

Turn = 1.
  0123
0 .h..
1 ...r
2 ..t.

Turn = 2.
  0123
0 ..hr
1 ....
2 ..t.

*** Darwin 3x4 ***
Turn = 0.
  0123
0 f...
1 ....
2 ..tr

Turn = 1.
  0123
0 f...
1 ...r
2 ..t.

Turn = 2.
  0123
0 f..r
1 ....
2 ..t.

*** Darwin 3x4 ***
Turn = 0.
  0123
0 f...
1 ....
2 ..hr

Turn = 1.
  0123
0 f...
1 ..hr
2 ....

Turn = 2.
  0123
0 f.hr
1 ....
2 ....

*** Darwin 3x4 ***
Turn = 0.
  0123
0 f...
1 .ff.
2 ..hr

Turn = 1.
  0123
0 f...
1 .ffr
2 ..h.

Turn = 2.
  0123
0 f..r
1 .ff.
2 ..h.

*** Darwin 5x5 ***
Turn = 0.
  01234
0 f....
1 .....
2 ..hr.
3 ...h.
4 .....

Turn = 1.
  01234
0 f....
1 ..hr.
2 ...h.
3 .....
4 .....

Turn = 2.
  01234
0 f.hr.
1 ...h.
2 .....
3 .....
4 .....

*** Darwin 5x5 ***
Turn = 0.
  01234
0 f....
1 .....
2 ..hr.
3 ...t.
4 .....

Turn = 1.
  01234
0 f....
1 ..hr.
2 .....
3 ...t.
4 .....

Turn = 2.
  01234
0 f.hr.
1 .....
2 .....
3 ...t.
4 .....

*** Darwin 5x5 ***
Turn = 0.
  01234
0 f....
1 .ffff
2 .fhtf
3 ...t.
4 .....

Turn = 1.
  01234
0 f....
1 .fftf
2 .fhtf
3 ...t.
4 .....

Turn = 2.
  01234
0 f....
1 .fftf
2 .fhtf
3 ...t.
4 .....

Turn = 3.
  01234
0 f....
1 .fttf
2 .fttf
3 ...t.
4 .....

*** Darwin 5x5 ***
Turn = 0.
  01234
0 f....
1 .rftf
2 .hhtf
3 ...t.
4 .....

Turn = 1.
  01234
0 f....
1 .rrtr
2 .hhtf
3 ...t.
4 .....

Turn = 2.
  01234
0 f....
1 .rrtr
2 .hhtr
3 ...t.
4 .....

Turn = 3.
  01234
0 fr...
1 ..rrr
2 .hhrr
3 ...t.
4 .....

*** Darwin 5x5 ***
Turn = 0.
  01234
0 f....
1 .rhtf
2 .hhtf
3 ...t.
4 .....

Turn = 1.
  01234
0 f....
1 .rrtr
2 .hhtf
3 ...t.
4 .....

Turn = 2.
  01234
0 f....
1 .rrtr
2 .hhtr
3 ...t.
4 .....

Turn = 3.
  01234
0 fr...
1 ..rrr
2 .hhrr
3 ...t.
4 .....

*** Darwin 5x5 ***
Turn = 0.
  01234
0 f....
1 .hhtf
2 .hhtf
3 ...t.
4 .....

Turn = 1.
  01234
0 f....
1 .hhtt
2 .hhtf
3 ...t.
4 .....

Turn = 2.
  01234
0 f....
1 .hhtt
2 .httf
3 ...t.
4 .....

Turn = 3.
  01234
0 f....
1 .httt
2 .httf
3 ...t.
4 .....

*** Darwin 5x5 ***
Turn = 0.
  01234
0 f....
1 .thtf
2 .hhtf
3 ...t.
4 .....

Turn = 1.
  01234
0 f....
1 .tttt
2 .hhtf
3 ...t.
4 .....

Turn = 2.
  01234
0 f....
1 .tttt
2 .httf
3 ...t.
4 .....

Turn = 3.
  01234
0 f....
1 .tttt
2 .httf
3 ...t.
4 .....

*** Darwin 5x5 ***
Turn = 0.
  01234
0 h....
1 .rhtf
2 .hhtf
3 ...t.
4 .....

Turn = 1.
  01234
0 .h...
1 .rrtr
2 .hhtf
3 ...t.
4 .....

Turn = 2.
  01234
0 ..h..
1 .rrtr
2 .hhtr
3 ...t.
4 .....

Turn = 3.
  01234
0 .r.h.
1 ..rrr
2 .hhrr
3 ...t.
4 .....

*** Darwin 5x5 ***
Turn = 0.
  01234
0 t....
1 .rhtf
2 .hhtf
3 ...t.
4 .....

Turn = 1.
  01234
0 t....
1 .rrtr
2 .hhtf
3 ...t.
4 .....

Turn = 2.
  01234
0 t....
1 .rrtr
2 .hhtr
3 ...t.
4 .....

Turn = 3.
  01234
0 tr...
1 ..rrr
2 .hhrr
3 ...t.
4 .....

*** Darwin 5x5 ***
Turn = 0.
  01234
0 r....
1 .rhtf
2 .hhtf
3 ...t.
4 .....

Turn = 1.
  01234
0 .r...
1 .rrtr
2 .hhtf
3 ...t.
4 .....

Turn = 2.
  01234
0 ..r..
1 .rrtr
2 .hhtr
3 ...t.
4 .....

Turn = 3.
  01234
0 .r.r.
1 ..rrr
2 .hhrr
3 ...t.
4 .....

*** Darwin 5x5 ***
Turn = 0.
  01234
0 f....
1 .rhtf
2 .fhtf
3 ...t.
4 .....

Turn = 1.
  01234
0 f....
1 .rrtr
2 .fhtf
3 ...t.
4 .....

Turn = 2.
  01234
0 f....
1 .rrtr
2 .fhtr
3 ...t.
4 .....

Turn = 3.
  01234
0 fr...
1 ..rrr
2 .fhrr
3 ...t.
4 .....

*** Darwin 5x5 ***
Turn = 0.
  01234
0 f....
1 .rhtf
2 .thtf
3 ...t.
4 .....

Turn = 1.
  01234
0 f....
1 .rttr
2 .tttf
3 ...t.
4 .....

Turn = 2.
  01234
0 f....
1 .rttr
2 .tttr
3 ...t.
4 .....

Turn = 3.
  01234
0 f..r.
1 .tt.r
2 .tttr
3 ...t.
4 .....

*** Darwin 5x5 ***
Turn = 0.
  01234
0 f....
1 .rhtf
2 .rhtf
3 ...t.
4 .....

Turn = 1.
  01234
0 f....
1 .rrtr
2 .rrtf
3 ...t.
4 .....

Turn = 2.
  01234
0 f....
1 .rrtr
2 .rrtr
3 ...t.
4 .....

Turn = 3.
  01234
0 f....
1 .rrrr
2 ..rrr
3 .r.t.
4 .....
