20

10 4
4
h 0 0 n
h 8 2 n
h 2 1 e
f 4 1 n
1 1

9 6
5
r 2 4 n
t 2 3 w
h 5 3 s
h 6 0 e
f 5 4 s
5 1

4 9
6
r 1 1 w
r 0 6 w
h 2 1 e
t 0 2 e
r 0 5 w
f 2 0 e
3 1

2 2
2
t 0 1 e
t 1 1 s
4 1

2 5
1
f 0 4 w
5 1

5 3
10
f 0 1 s
r 0 2 w
h 0 1 n
h 2 1 s
h 3 2 w
h 0 2 e
f 1 0 n
t 0 2 w
f 4 0 s
r 0 2 n
1 2

2 9
3
t 0 1 n
h 1 1 w
f 1 1 n
4 3

5 2
3
f 2 1 s
h 0 0 n
f 2 1 e
5 3

6 3
5
f 2 0 e
h 4 2 e
t 5 2 s
t 2 1 e
f 3 0 w
4 1

10 2
6
r 3 0 e
h 8 1 s
r 1 1 s
t 0 1 n
h 2 1 w
f 2 0 n
5 1

3 2
11
f 0 1 e
t 0 1 w
t 2 1 n
r 2 0 n
h 1 1 s
f 2 0 w
f 0 0 s
f 0 1 w
f 0 1 e
t 0 1 e
t 0 1 s
10 1

5 12
10
f 0 1 n
r 0 3 s
h 4 7 w
f 2 4 e
t 0 0 n
r 4 5 e
f 1 0 s
t 0 8 w
r 2 2 s
f 4 7 w
4 2

5 5
8
f 1 3 e
t 2 4 n
h 2 4 s
r 0 1 w
t 1 3 n
r 2 4 s
h 0 2 w
t 1 0 e
3 3

8 3
14
t 6 1 n
r 5 2 e
f 5 2 s
h 7 2 w
r 1 2 e
f 7 2 s
h 1 1 n
t 5 1 w
r 0 2 n
f 0 2 w
h 1 1 s
t 5 1 e
r 0 2 n
f 0 2 s
1 3

6 9
5
h 1 5 e
r 4 6 s
t 3 6 n
f 1 5 w
r 5 5 w
1 2

4 9
6
f 1 6 w
h 1 4 s
r 0 3 e
t 1 3 n
f 0 2 e
r 2 1 n
4 1

5 2
7
t 2 1 s
f 3 1 e
r 0 0 n
h 2 0 w
t 4 1 s
f 1 1 e
r 3 0 n
4 2

2 2
2
f 0 1 e
r 1 0 w
4 3

6 9
5
h 5 4 n
t 0 7 s
f 5 8 w
r 1 8 e
f 1 6 n
4 2

3 6
9
f 1 1 s
r 0 0 e
h 1 4 n
t 0 3 w
h 1 0 s
r 0 1 e
h 2 2 n
t 2 1 w
h 1 0 s
2 2
